STEP 1: FORMAT THE DATAFRAME
…
#> Warning in summary.lm(x): essentially perfect fit: summary may be
#> unreliable

#> Warning in summary.lm(x): essentially perfect fit: summary may be
#> unreliable

#> Warning in summary.lm(x): essentially perfect fit: summary may be
#> unreliable

#> Warning in summary.lm(x): essentially perfect fit: summary may be
#> unreliable
print(modtbl)
#> # A tibble: 273 x 9
#>    name.cov  time history  estimate     E time.exposure time.covariate
#>    <chr>    <dbl> <chr>       <dbl> <dbl>         <dbl>          <dbl>
#>  1 Chg.pan…     0 H1       1.14e-17     1             0              0
#>  2 Chg.pan…     1 H101    -2.31e- 4     1             1              1
#>  3 Chg.pan…     3 H10101  -4.07e- 2     1             3              3
#>  4 Chg.pan…     6 H10101…  1.74e- 1     1             6              6
#>  5 Chg.pan…     9 H10101… -9.04e- 4     1             9              9
#>  6 Chg.pan…    12 H10101…  9.44e- 4     1            12             12
#>  7 Chg.pan…    15 H10101…  9.67e- 2     1            15             15
#>  8 Chg.pan…    18 H10101… -1.31e- 2     1            18             18
#>  9 Chg.pan…     0 H2       1.26e-17     1             0              0
#> 10 Chg.pan…     1 H202     2.79e- 2     1             1              1
#> # … with 263 more rows, and 2 more variables: H <chr>, SMD <dbl>
…
